{
  "consumes": [
    "application/json",
    "multipart/form-data"
  ],
  "produces": [
    "application/json"
  ],
  "swagger": "2.0",
  "info": {
    "description": "Documentation of your project API.\n\nSchemes:\nhttp\nhttps",
    "title": "infoblog.",
    "version": "1.0.0"
  },
  "basePath": "/",
  "paths": {
    "/api/1/exchange/average": {
      "get": {
        "security": [
          {
            "Bearer": [
              "[]"
            ]
          }
        ],
        "tags": [
          "exchange"
        ],
        "summary": "Получение информации о средних ценах.",
        "operationId": "averagePricesRequest",
        "responses": {
          "200": {
            "$ref": "#/responses/ExchangeResponse"
          }
        }
      }
    },
    "/api/1/exchange/history": {
      "get": {
        "security": [
          {
            "Bearer": [
              "[]"
            ]
          }
        ],
        "tags": [
          "exchange"
        ],
        "summary": "Получение истории цен (данных много, может подвесить браузер).",
        "operationId": "historyRequest",
        "responses": {
          "200": {
            "$ref": "#/responses/ExchangeListResponse"
          }
        }
      }
    },
    "/api/1/exchange/max": {
      "get": {
        "security": [
          {
            "Bearer": [
              "[]"
            ]
          }
        ],
        "tags": [
          "exchange"
        ],
        "summary": "Получение информации о максимальных ценах.",
        "operationId": "maxPricesRequest",
        "responses": {
          "200": {
            "$ref": "#/responses/ExchangeResponse"
          }
        }
      }
    },
    "/api/1/exchange/min": {
      "get": {
        "security": [
          {
            "Bearer": [
              "[]"
            ]
          }
        ],
        "tags": [
          "exchange"
        ],
        "summary": "Получение информации о минимальных ценах.",
        "operationId": "minPricesRequest",
        "responses": {
          "200": {
            "$ref": "#/responses/ExchangeResponse"
          }
        }
      }
    },
    "/api/1/exchange/ticker": {
      "get": {
        "security": [
          {
            "Bearer": [
              "[]"
            ]
          }
        ],
        "tags": [
          "exchange"
        ],
        "summary": "Получение данных тикера.",
        "operationId": "tickerRequest",
        "responses": {
          "200": {
            "$ref": "#/responses/ExchangeResponse"
          }
        }
      }
    }
  },
  "definitions": {
    "Exchange": {
      "type": "object",
      "additionalProperties": {
        "$ref": "#/definitions/ExchangeValue"
      },
      "x-go-package": "gitlab.com/dvkgroup/go-rpc-extension/models"
    },
    "ExchangeList": {
      "type": "object",
      "additionalProperties": {
        "type": "array",
        "items": {
          "$ref": "#/definitions/ExchangeValue"
        }
      },
      "x-go-package": "gitlab.com/dvkgroup/go-rpc-extension/models"
    },
    "ExchangeListResponse": {
      "type": "object",
      "properties": {
        "data": {
          "$ref": "#/definitions/ExchangeList"
        },
        "error_code": {
          "type": "integer",
          "format": "int64",
          "x-go-name": "ErrorCode"
        },
        "success": {
          "type": "boolean",
          "x-go-name": "Success"
        }
      },
      "x-go-package": "gitlab.com/dvkgroup/go-rpc-extension/messages"
    },
    "ExchangeResponse": {
      "type": "object",
      "properties": {
        "data": {
          "$ref": "#/definitions/Exchange"
        },
        "error_code": {
          "type": "integer",
          "format": "int64",
          "x-go-name": "ErrorCode"
        },
        "success": {
          "type": "boolean",
          "x-go-name": "Success"
        }
      },
      "x-go-package": "gitlab.com/dvkgroup/go-rpc-extension/messages"
    },
    "ExchangeValue": {
      "type": "object",
      "properties": {
        "avg": {
          "type": "string",
          "format": "double",
          "x-go-name": "Avg"
        },
        "buy_price": {
          "type": "string",
          "format": "double",
          "x-go-name": "BuyPrice"
        },
        "high": {
          "type": "string",
          "format": "double",
          "x-go-name": "High"
        },
        "last_trade": {
          "type": "string",
          "format": "double",
          "x-go-name": "LastTrade"
        },
        "low": {
          "type": "string",
          "format": "double",
          "x-go-name": "Low"
        },
        "sell_price": {
          "type": "string",
          "format": "double",
          "x-go-name": "SellPrice"
        },
        "updated": {
          "type": "integer",
          "format": "int64",
          "x-go-name": "Updated"
        },
        "vol": {
          "type": "string",
          "format": "double",
          "x-go-name": "Vol"
        },
        "vol_curr": {
          "type": "string",
          "format": "double",
          "x-go-name": "VolCurr"
        }
      },
      "x-go-package": "gitlab.com/dvkgroup/go-rpc-extension/models"
    }
  },
  "responses": {
    "ExchangeListResponse": {
      "description": "",
      "schema": {
        "$ref": "#/definitions/ExchangeListResponse"
      }
    },
    "ExchangeResponse": {
      "description": "",
      "schema": {
        "$ref": "#/definitions/ExchangeResponse"
      }
    }
  },
  "securityDefinitions": {
    "Bearer": {
      "type": "apiKey",
      "name": "Authorization",
      "in": "header"
    }
  }
}